MachineShop User Guide
…
9.3 Resample Function

Resampling is performed by calling the resample() function with a variable specification, model, and control structure. Like the fit() function, variables may be specified in terms of a traditional formula, design matrix, model frame, or recipe.

## Resample estimation for survival means and probabilities
(res_means <- resample(surv_fo, data = surv_train, model = GBMModel,
                       control = surv_means_control))
#> --- Resample object ------------------------------------------------------------
#> 
#> Model: GBMModel
#> Sampling variables:
#> # A tibble: 136 x 2
#>    Case  Stratification$`(strata)`
#>    <chr> <fct>                    
#>  1 159   0:(2.56e+03,3.45e+03]    
#>  2 179   0:(3.45e+03,5.56e+03]    
#>  3 14    1:[99,1.05e+03]          
#>  4 195   0:(3.45e+03,5.56e+03]    
#>  5 170   0:(2.56e+03,3.45e+03]    
#>  6 50    0:[1.5e+03,1.92e+03]     
#>  7 118   1:(1.05e+03,3.18e+03]    
#>  8 43    1:(1.05e+03,3.18e+03]    
#>  9 203   0:(3.45e+03,5.56e+03]    
#> 10 199   0:(3.45e+03,5.56e+03]    
#> # ... with 126 more rows
#> 
#> === CVControl object ===
#> 
#> Label: K-Fold Cross-Validation
#> Folds: 5
#> Repeats: 3

(res_probs <- resample(surv_fo, data = surv_train, model = GBMModel,
                       control = surv_probs_control))
#> --- Resample object ------------------------------------------------------------
#> 
#> Model: GBMModel
#> Sampling variables:
#> # A tibble: 136 x 2
#>    Case  Stratification$`(strata)`
#>    <chr> <fct>                    
#>  1 159   0:(2.56e+03,3.45e+03]    
#>  2 179   0:(3.45e+03,5.56e+03]    
#>  3 14    1:[99,1.05e+03]          
#>  4 195   0:(3.45e+03,5.56e+03]    
#>  5 170   0:(2.56e+03,3.45e+03]    
#>  6 50    0:[1.5e+03,1.92e+03]     
#>  7 118   1:(1.05e+03,3.18e+03]    
#>  8 43    1:(1.05e+03,3.18e+03]    
#>  9 203   0:(3.45e+03,5.56e+03]    
#> 10 199   0:(3.45e+03,5.56e+03]    
#> # ... with 126 more rows
…
## Resample estimation
res1 <- resample(surv_fo, data = surv_train, model = GBMModel(n.trees = 25),
                 control = surv_means_control)
res2 <- resample(surv_fo, data = surv_train, model = GBMModel(n.trees = 50),
                 control = surv_means_control)
res3 <- resample(surv_fo, data = surv_train, model = GBMModel(n.trees = 100),
                 control = surv_means_control)

## Combine resample output for comparison
(res <- c(GBM1 = res1, GBM2 = res2, GBM3 = res3))
#> --- Resample object ------------------------------------------------------------
#> 
#> Models: GBM1, GBM2, GBM3
#> Sampling variables:
#> # A tibble: 136 x 2
#>    Case  Stratification$`(strata)`
#>    <chr> <fct>                    
#>  1 159   0:(2.56e+03,3.45e+03]    
#>  2 179   0:(3.45e+03,5.56e+03]    
#>  3 14    1:[99,1.05e+03]          
#>  4 195   0:(3.45e+03,5.56e+03]    
#>  5 170   0:(2.56e+03,3.45e+03]    
#>  6 50    0:[1.5e+03,1.92e+03]     
#>  7 118   1:(1.05e+03,3.18e+03]    
#>  8 43    1:(1.05e+03,3.18e+03]    
#>  9 203   0:(3.45e+03,5.56e+03]    
#> 10 199   0:(3.45e+03,5.56e+03]    
#> # ... with 126 more rows
…
